{
  "meArtist":{
    "id": "1",
    "name": "Amr Diab",
    "email": "mostafa@gmail.com",
    "dateOfBirth": "1999-9-1",
    "gender": "male",
    "images": "https://static.arageek.com/wp-content/uploads/2017/09/Amr-Diab-2.jpg",
    "background":"https://i.scdn.co/image/5ac491f3bf789a7a1491b20de5e83006e0ef2ba0",
    "bio":"Amr Diab is a pop singer and songwriter from Egypt. He has won a record seven World Music Awards to date, and is considered the all-time best-selling musical artist from the Middle East. He is the creator of his own genre; he calls his meld of Arabic harmony and Western rhythms"

    
  },
  "users": [
    {
      "id": "1",
      "name": "Ibrahim",
      "password": "1234",
      "email": "ibrahimwael99@gmail.com",
      "dateOfBirth": "1999-5-14",
      "gender": "male",
      "images": "https://scontent.xx.fbcdn.net/v/t1.0-1/p320x320/67395602_2399311110115141_4496818810312982528_o.jpg?_nc_cat=109&_nc_sid=0c64ff&_nc_ohc=Ep8QLCJLjAUAX_G4U1Y&_nc_ht=scontent.xx&_nc_tp=6&oh=3df46d801c92c51720b03dc338a0cba2&oe=5E944BCA",
      "notifications": {
        "newMusic": true,
        "artistUpdates": false,
        "playlistUpdates": true
      }
    },
    {
      "id": "2",
      "name": "Mostafa",
      "email": "mostafa@gmail.com",
      "dateOfBirth": "1999-9-1",
      "gender": "male",
      "images": "https://platform-lookaside.fbsbx.com/platform/profilepic/?asid=2806529116093705&height=300&width=300&ext=1592252564&hash=AeS_kIoGT8ETHMrg",
      "notifications": {
        "newMusic": true,
        "artistUpdates": true,
        "playlistUpdates": true
      }
    },
    {
      "name": "amr3afifi",
      "email": "amr7afifi@gmail.com",
      "dateOfBirth": "26 7 1998",
      "password": "12345678",
      "gender": "Male",
      "id": "gpBqZmO"
    }
  ],
  "subscriptionCodes": [
    {
      "id": 1,
      "code": "111"
    },
    {
      "id": 2,
      "code": "222"
    },
    {
      "code": "128343",
      "id": 3
    },
    {
      "code": "111",
      "id": 4
    },
    {
      "code": "222",
      "id": 5
    },
    {
      "code": "333",
      "id": 6
    }
  ],
  "album_tracks": [
    {
      "id": "1",
      "href": "https://api.spotify.com/v1/albums/4aawyAB9vmqN3uQ7FjRGTy/tracks?offset=5&limit=10&market=ES",
      "items": [
        {
          "artists": [
            {
              "external_urls": {
                "spotify": "https://open.spotify.com/artist/0TnOYISbd1XYRBk9myaseg"
              },
              "href": "https://api.spotify.com/v1/artists/0TnOYISbd1XYRBk9myaseg",
              "id": "0TnOYISbd1XYRBk9myaseg",
              "name": "Pitbull",
              "type": "artist",
              "uri": "spotify:artist:0TnOYISbd1XYRBk9myaseg"
            },
            {
              "external_urls": {
                "spotify": "https://open.spotify.com/artist/23zg3TcAtWQy7J6upgbUnj"
              },
              "href": "https://api.spotify.com/v1/artists/23zg3TcAtWQy7J6upgbUnj",
              "id": "23zg3TcAtWQy7J6upgbUnj",
              "name": "Usher",
              "type": "artist",
              "uri": "spotify:artist:23zg3TcAtWQy7J6upgbUnj"
            },
            {
              "external_urls": {
                "spotify": "https://open.spotify.com/artist/4D75GcNG95ebPtNvoNVXhz"
              },
              "href": "https://api.spotify.com/v1/artists/4D75GcNG95ebPtNvoNVXhz",
              "id": "4D75GcNG95ebPtNvoNVXhz",
              "name": "Afrojack",
              "type": "artist",
              "uri": "spotify:artist:4D75GcNG95ebPtNvoNVXhz"
            }
          ],
          "disc_number": 1,
          "duration_ms": 243160,
          "explicit": true,
          "external_urls": {
            "spotify": "https://open.spotify.com/track/6Q4PYJtrq8CBx7YCY5IyRN"
          },
          "href": "https://api.spotify.com/v1/tracks/6Q4PYJtrq8CBx7YCY5IyRN",
          "id": "6Q4PYJtrq8CBx7YCY5IyRN",
          "is_local": false,
          "is_playable": true,
          "name": "Party Ain't Over (feat. Usher & Afrojack)",
          "preview_url": "https://p.scdn.co/mp3-preview/d3e3191991feb0cb732398374e8c59cdb2cc9fe7?cid=774b29d4f13844c495f206cafdad9c86",
          "track_number": 6,
          "type": "track",
          "uri": "spotify:track:6Q4PYJtrq8CBx7YCY5IyRN"
        },
        {
          "artists": [
            {
              "external_urls": {
                "spotify": "https://open.spotify.com/artist/0TnOYISbd1XYRBk9myaseg"
              },
              "href": "https://api.spotify.com/v1/artists/0TnOYISbd1XYRBk9myaseg",
              "id": "0TnOYISbd1XYRBk9myaseg",
              "name": "Pitbull",
              "type": "artist",
              "uri": "spotify:artist:0TnOYISbd1XYRBk9myaseg"
            },
            {
              "external_urls": {
                "spotify": "https://open.spotify.com/artist/2DlGxzQSjYe5N6G9nkYghR"
              },
              "href": "https://api.spotify.com/v1/artists/2DlGxzQSjYe5N6G9nkYghR",
              "id": "2DlGxzQSjYe5N6G9nkYghR",
              "name": "Jennifer Lopez",
              "type": "artist",
              "uri": "spotify:artist:2DlGxzQSjYe5N6G9nkYghR"
            }
          ],
          "disc_number": 1,
          "duration_ms": 196920,
          "explicit": false,
          "external_urls": {
            "spotify": "https://open.spotify.com/track/0QTVwqcOsYd73AOkYkk0Hg"
          },
          "href": "https://api.spotify.com/v1/tracks/0QTVwqcOsYd73AOkYkk0Hg",
          "id": "0QTVwqcOsYd73AOkYkk0Hg",
          "is_local": false,
          "is_playable": true,
          "name": "Drinks for You (Ladies Anthem) (feat. J. Lo)",
          "preview_url": "https://p.scdn.co/mp3-preview/8c76d62cfbbabb6fbd5daf421c8b9d5365858757?cid=774b29d4f13844c495f206cafdad9c86",
          "track_number": 7,
          "type": "track",
          "uri": "spotify:track:0QTVwqcOsYd73AOkYkk0Hg"
        },
        {
          "artists": [
            {
              "external_urls": {
                "spotify": "https://open.spotify.com/artist/0TnOYISbd1XYRBk9myaseg"
              },
              "href": "https://api.spotify.com/v1/artists/0TnOYISbd1XYRBk9myaseg",
              "id": "0TnOYISbd1XYRBk9myaseg",
              "name": "Pitbull",
              "type": "artist",
              "uri": "spotify:artist:0TnOYISbd1XYRBk9myaseg"
            },
            {
              "external_urls": {
                "spotify": "https://open.spotify.com/artist/0rdrTj1p6n1C9KnwaWn6xf"
              },
              "href": "https://api.spotify.com/v1/artists/0rdrTj1p6n1C9KnwaWn6xf",
              "id": "0rdrTj1p6n1C9KnwaWn6xf",
              "name": "The Wanted",
              "type": "artist",
              "uri": "spotify:artist:0rdrTj1p6n1C9KnwaWn6xf"
            },
            {
              "external_urls": {
                "spotify": "https://open.spotify.com/artist/4D75GcNG95ebPtNvoNVXhz"
              },
              "href": "https://api.spotify.com/v1/artists/4D75GcNG95ebPtNvoNVXhz",
              "id": "4D75GcNG95ebPtNvoNVXhz",
              "name": "Afrojack",
              "type": "artist",
              "uri": "spotify:artist:4D75GcNG95ebPtNvoNVXhz"
            }
          ],
          "disc_number": 1,
          "duration_ms": 244920,
          "explicit": false,
          "external_urls": {
            "spotify": "https://open.spotify.com/track/10Sydb6AAFPdgCzCKOSZuI"
          },
          "href": "https://api.spotify.com/v1/tracks/10Sydb6AAFPdgCzCKOSZuI",
          "id": "10Sydb6AAFPdgCzCKOSZuI",
          "is_local": false,
          "is_playable": true,
          "name": "Have Some Fun (feat. The Wanted & Afrojack)",
          "preview_url": "https://p.scdn.co/mp3-preview/7896249670ea7d4ff6d0e1b4d73f380ce70a2356?cid=774b29d4f13844c495f206cafdad9c86",
          "track_number": 8,
          "type": "track",
          "uri": "spotify:track:10Sydb6AAFPdgCzCKOSZuI"
        },
        {
          "artists": [
            {
              "external_urls": {
                "spotify": "https://open.spotify.com/artist/0TnOYISbd1XYRBk9myaseg"
              },
              "href": "https://api.spotify.com/v1/artists/0TnOYISbd1XYRBk9myaseg",
              "id": "0TnOYISbd1XYRBk9myaseg",
              "name": "Pitbull",
              "type": "artist",
              "uri": "spotify:artist:0TnOYISbd1XYRBk9myaseg"
            },
            {
              "external_urls": {
                "spotify": "https://open.spotify.com/artist/0e9P96siQmxphVXAwTy2pa"
              },
              "href": "https://api.spotify.com/v1/artists/0e9P96siQmxphVXAwTy2pa",
              "id": "0e9P96siQmxphVXAwTy2pa",
              "name": "Danny Mercer",
              "type": "artist",
              "uri": "spotify:artist:0e9P96siQmxphVXAwTy2pa"
            }
          ],
          "disc_number": 1,
          "duration_ms": 206800,
          "explicit": true,
          "external_urls": {
            "spotify": "https://open.spotify.com/track/4k61iDqmtX9nI7RfLmp9aq"
          },
          "href": "https://api.spotify.com/v1/tracks/4k61iDqmtX9nI7RfLmp9aq",
          "id": "4k61iDqmtX9nI7RfLmp9aq",
          "is_local": false,
          "is_playable": true,
          "name": "Outta Nowhere (feat. Danny Mercer)",
          "preview_url": "https://p.scdn.co/mp3-preview/c5038fdf589d869bff568cae397f983fa056825d?cid=774b29d4f13844c495f206cafdad9c86",
          "track_number": 9,
          "type": "track",
          "uri": "spotify:track:4k61iDqmtX9nI7RfLmp9aq"
        },
        {
          "artists": [
            {
              "external_urls": {
                "spotify": "https://open.spotify.com/artist/0TnOYISbd1XYRBk9myaseg"
              },
              "href": "https://api.spotify.com/v1/artists/0TnOYISbd1XYRBk9myaseg",
              "id": "0TnOYISbd1XYRBk9myaseg",
              "name": "Pitbull",
              "type": "artist",
              "uri": "spotify:artist:0TnOYISbd1XYRBk9myaseg"
            },
            {
              "external_urls": {
                "spotify": "https://open.spotify.com/artist/7qG3b048QCHVRO5Pv1T5lw"
              },
              "href": "https://api.spotify.com/v1/artists/7qG3b048QCHVRO5Pv1T5lw",
              "id": "7qG3b048QCHVRO5Pv1T5lw",
              "name": "Enrique Iglesias",
              "type": "artist",
              "uri": "spotify:artist:7qG3b048QCHVRO5Pv1T5lw"
            }
          ],
          "disc_number": 1,
          "duration_ms": 205800,
          "explicit": false,
          "external_urls": {
            "spotify": "https://open.spotify.com/track/7oGRkL31ElVMcevQDceT99"
          },
          "href": "https://api.spotify.com/v1/tracks/7oGRkL31ElVMcevQDceT99",
          "id": "7oGRkL31ElVMcevQDceT99",
          "is_local": false,
          "is_playable": true,
          "name": "Tchu Tchu Tcha (feat. Enrique Iglesias)",
          "preview_url": "https://p.scdn.co/mp3-preview/977ea4cd1a12653d8da5c80dbe7ef59d1b82cf41?cid=774b29d4f13844c495f206cafdad9c86",
          "track_number": 10,
          "type": "track",
          "uri": "spotify:track:7oGRkL31ElVMcevQDceT99"
        },
        {
          "artists": [
            {
              "external_urls": {
                "spotify": "https://open.spotify.com/artist/0TnOYISbd1XYRBk9myaseg"
              },
              "href": "https://api.spotify.com/v1/artists/0TnOYISbd1XYRBk9myaseg",
              "id": "0TnOYISbd1XYRBk9myaseg",
              "name": "Pitbull",
              "type": "artist",
              "uri": "spotify:artist:0TnOYISbd1XYRBk9myaseg"
            },
            {
              "external_urls": {
                "spotify": "https://open.spotify.com/artist/4D75GcNG95ebPtNvoNVXhz"
              },
              "href": "https://api.spotify.com/v1/artists/4D75GcNG95ebPtNvoNVXhz",
              "id": "4D75GcNG95ebPtNvoNVXhz",
              "name": "Afrojack",
              "type": "artist",
              "uri": "spotify:artist:4D75GcNG95ebPtNvoNVXhz"
            },
            {
              "external_urls": {
                "spotify": "https://open.spotify.com/artist/1EVWYRr2obCRDoSoD6KSuM"
              },
              "href": "https://api.spotify.com/v1/artists/1EVWYRr2obCRDoSoD6KSuM",
              "id": "1EVWYRr2obCRDoSoD6KSuM",
              "name": "Havana Brown",
              "type": "artist",
              "uri": "spotify:artist:1EVWYRr2obCRDoSoD6KSuM"
            }
          ],
          "disc_number": 1,
          "duration_ms": 219600,
          "explicit": true,
          "external_urls": {
            "spotify": "https://open.spotify.com/track/60xPqMqnHZl7Jfiu6E9q8X"
          },
          "href": "https://api.spotify.com/v1/tracks/60xPqMqnHZl7Jfiu6E9q8X",
          "id": "60xPqMqnHZl7Jfiu6E9q8X",
          "is_local": false,
          "is_playable": true,
          "name": "Last Night (feat. Afrojack & Havana Brown)",
          "preview_url": "https://p.scdn.co/mp3-preview/1dcae6bd0bfffd2f1501f9aa2a8b594c2d6618fa?cid=774b29d4f13844c495f206cafdad9c86",
          "track_number": 11,
          "type": "track",
          "uri": "spotify:track:60xPqMqnHZl7Jfiu6E9q8X"
        },
        {
          "artists": [
            {
              "external_urls": {
                "spotify": "https://open.spotify.com/artist/0TnOYISbd1XYRBk9myaseg"
              },
              "href": "https://api.spotify.com/v1/artists/0TnOYISbd1XYRBk9myaseg",
              "id": "0TnOYISbd1XYRBk9myaseg",
              "name": "Pitbull",
              "type": "artist",
              "uri": "spotify:artist:0TnOYISbd1XYRBk9myaseg"
            }
          ],
          "disc_number": 1,
          "duration_ms": 197520,
          "explicit": true,
          "external_urls": {
            "spotify": "https://open.spotify.com/track/1jAdXqOSICyXYLaW9ioSur"
          },
          "href": "https://api.spotify.com/v1/tracks/1jAdXqOSICyXYLaW9ioSur",
          "id": "1jAdXqOSICyXYLaW9ioSur",
          "is_local": false,
          "is_playable": true,
          "name": "I'm Off That",
          "preview_url": "https://p.scdn.co/mp3-preview/5aca73ec07274bf216925d71c48d5130a45a7e2a?cid=774b29d4f13844c495f206cafdad9c86",
          "track_number": 12,
          "type": "track",
          "uri": "spotify:track:1jAdXqOSICyXYLaW9ioSur"
        },
        {
          "artists": [
            {
              "external_urls": {
                "spotify": "https://open.spotify.com/artist/0TnOYISbd1XYRBk9myaseg"
              },
              "href": "https://api.spotify.com/v1/artists/0TnOYISbd1XYRBk9myaseg",
              "id": "0TnOYISbd1XYRBk9myaseg",
              "name": "Pitbull",
              "type": "artist",
              "uri": "spotify:artist:0TnOYISbd1XYRBk9myaseg"
            },
            {
              "external_urls": {
                "spotify": "https://open.spotify.com/artist/5F2Bwl7Is7KVwTbNbMclIS"
              },
              "href": "https://api.spotify.com/v1/artists/5F2Bwl7Is7KVwTbNbMclIS",
              "id": "5F2Bwl7Is7KVwTbNbMclIS",
              "name": "Papayo",
              "type": "artist",
              "uri": "spotify:artist:5F2Bwl7Is7KVwTbNbMclIS"
            }
          ],
          "disc_number": 1,
          "duration_ms": 196440,
          "explicit": false,
          "external_urls": {
            "spotify": "https://open.spotify.com/track/0fjRYHFz9ealui1lfnN8it"
          },
          "href": "https://api.spotify.com/v1/tracks/0fjRYHFz9ealui1lfnN8it",
          "id": "0fjRYHFz9ealui1lfnN8it",
          "is_local": false,
          "is_playable": true,
          "name": "Echa Pa'lla (Manos Pa'rriba) (feat. Papayo)",
          "preview_url": "https://p.scdn.co/mp3-preview/b5dc8fdadc8133914412bb9be48a000eefae1906?cid=774b29d4f13844c495f206cafdad9c86",
          "track_number": 13,
          "type": "track",
          "uri": "spotify:track:0fjRYHFz9ealui1lfnN8it"
        },
        {
          "artists": [
            {
              "external_urls": {
                "spotify": "https://open.spotify.com/artist/0TnOYISbd1XYRBk9myaseg"
              },
              "href": "https://api.spotify.com/v1/artists/0TnOYISbd1XYRBk9myaseg",
              "id": "0TnOYISbd1XYRBk9myaseg",
              "name": "Pitbull",
              "type": "artist",
              "uri": "spotify:artist:0TnOYISbd1XYRBk9myaseg"
            },
            {
              "external_urls": {
                "spotify": "https://open.spotify.com/artist/0z4gvV4rjIZ9wHck67ucSV"
              },
              "href": "https://api.spotify.com/v1/artists/0z4gvV4rjIZ9wHck67ucSV",
              "id": "0z4gvV4rjIZ9wHck67ucSV",
              "name": "Akon",
              "type": "artist",
              "uri": "spotify:artist:0z4gvV4rjIZ9wHck67ucSV"
            },
            {
              "external_urls": {
                "spotify": "https://open.spotify.com/artist/5IqWDVLGThjmkm22e3oBU3"
              },
              "href": "https://api.spotify.com/v1/artists/5IqWDVLGThjmkm22e3oBU3",
              "id": "5IqWDVLGThjmkm22e3oBU3",
              "name": "David Rush",
              "type": "artist",
              "uri": "spotify:artist:5IqWDVLGThjmkm22e3oBU3"
            }
          ],
          "disc_number": 1,
          "duration_ms": 257613,
          "explicit": true,
          "external_urls": {
            "spotify": "https://open.spotify.com/track/7of35ktwTbL906Z1i3mT4K"
          },
          "href": "https://api.spotify.com/v1/tracks/7of35ktwTbL906Z1i3mT4K",
          "id": "7of35ktwTbL906Z1i3mT4K",
          "is_local": false,
          "is_playable": true,
          "name": "Everybody Fucks (feat. Akon & David Rush)",
          "preview_url": "https://p.scdn.co/mp3-preview/cce6c8d1dae71670ba14bf5bbdc4066601a328ca?cid=774b29d4f13844c495f206cafdad9c86",
          "track_number": 14,
          "type": "track",
          "uri": "spotify:track:7of35ktwTbL906Z1i3mT4K"
        },
        {
          "artists": [
            {
              "external_urls": {
                "spotify": "https://open.spotify.com/artist/0TnOYISbd1XYRBk9myaseg"
              },
              "href": "https://api.spotify.com/v1/artists/0TnOYISbd1XYRBk9myaseg",
              "id": "0TnOYISbd1XYRBk9myaseg",
              "name": "Pitbull",
              "type": "artist",
              "uri": "spotify:artist:0TnOYISbd1XYRBk9myaseg"
            },
            {
              "external_urls": {
                "spotify": "https://open.spotify.com/artist/0EmeFodog0BfCgMzAIvKQp"
              },
              "href": "https://api.spotify.com/v1/artists/0EmeFodog0BfCgMzAIvKQp",
              "id": "0EmeFodog0BfCgMzAIvKQp",
              "name": "Shakira",
              "type": "artist",
              "uri": "spotify:artist:0EmeFodog0BfCgMzAIvKQp"
            }
          ],
          "disc_number": 1,
          "duration_ms": 245920,
          "explicit": false,
          "external_urls": {
            "spotify": "https://open.spotify.com/track/2JA6A6Y5f4m7PawM58U2Op"
          },
          "href": "https://api.spotify.com/v1/tracks/2JA6A6Y5f4m7PawM58U2Op",
          "id": "2JA6A6Y5f4m7PawM58U2Op",
          "is_local": false,
          "is_playable": true,
          "name": "Get It Started (feat. Shakira)",
          "preview_url": "https://p.scdn.co/mp3-preview/9b81dacd22e4be31f60783a8ba0b7973b7ef637e?cid=774b29d4f13844c495f206cafdad9c86",
          "track_number": 15,
          "type": "track",
          "uri": "spotify:track:2JA6A6Y5f4m7PawM58U2Op"
        }
      ],
      "limit": 10,
      "next": "https://api.spotify.com/v1/albums/4aawyAB9vmqN3uQ7FjRGTy/tracks?offset=15&limit=10&market=ES",
      "offset": 5,
      "previous": "https://api.spotify.com/v1/albums/4aawyAB9vmqN3uQ7FjRGTy/tracks?offset=0&limit=10&market=ES",
      "total": 18
    }
  ],
  "albums": [
    {
      "albumType": "\"compilation\"",
      "artists": [
        {
          "id": "string",
          "name": "Pitbull",
          "uri": "string",
          "href": "string",
          "externalUrls": {
            "url": "https://open.spotify.com/track/6kLCHFM39wkFjOuyPGLGeQ"
          },
          "images": [
            {
              "url": "string"
            }
          ],
          "type": "string",
          "followers": [
            {
              "href": "string",
              "total": 0
            }
          ],
          "userStats": {
            "followersNumber": 0,
            "followingNumber": 0,
            "playlistsNumber": 0
          },
          "userArtist": {}
        }
      ],
      "copyrights": [
        {
          "text": "string"
        }
      ],
      "externalUrls": {
        "url": "https://open.spotify.com/track/6kLCHFM39wkFjOuyPGLGeQ"
      },
      "genres": "Synthwave",
      "href": "https://api.spotify.com/v1/artists/1vCWHaC5f2uS3yhpwWbIA6/albums?offset=0&limit=2&include_groups=appears_on&market=ES",
      "id": "1",
      "images": "https://i.scdn.co/image/ab67616d0000b2732c5b24ecfa39523a75c993c4",
      "label": "string",
      "name": "Global Warming",
      "popularity": 13490,
      "releaseDate": "1981-11-5",
      "total_tracks": 0,
      "type": "album",
      "uri": "spotify:album:0sNOF9WDwhWunNAHPD3Baj"
    },
    {
      "albumType": "\"compilation\"",
      "artists": [
        {
          "id": "string",
          "name": "Stormzy",
          "uri": "string",
          "href": "string",
          "externalUrls": {
            "url": "https://open.spotify.com/track/6kLCHFM39wkFjOuyPGLGeQ"
          },
          "images": [
            {
              "url": "string"
            }
          ],
          "type": "string",
          "followers": [
            {
              "href": "string",
              "total": 0
            }
          ],
          "userStats": {
            "followersNumber": 0,
            "followingNumber": 0,
            "playlistsNumber": 0
          },
          "userArtist": {}
        }
      ],
      "copyrights": [
        {
          "text": "string"
        }
      ],
      "externalUrls": {
        "url": "https://open.spotify.com/track/6kLCHFM39wkFjOuyPGLGeQ"
      },
      "genres": "Synthwave",
      "href": "https://api.spotify.com/v1/artists/1vCWHaC5f2uS3yhpwWbIA6/albums?offset=0&limit=2&include_groups=appears_on&market=ES",
      "id": "2",
      "images": "https://i.scdn.co/image/ab67616d0000b2732c5b24ecfa39523a75c993c4",
      "label": "string",
      "name": "Heavy Is The Head",
      "popularity": 13490,
      "releaseDate": "1981-11-5",
      "total_tracks": 0,
      "type": "album",
      "uri": "spotify:album:0sNOF9WDwhWunNAHPD3Baj"
    }
  ]
}